-----BEGIN PGP SIGNATURE-----
Version: GnuPG v1

iQEcBAABCAAGBQJVEh4cAAoJEAQBqiBG05f/ekcH/RS1XV7AgdaKKrHMUtm0Nx2O
mUziW4xCRTqSr808x1Wuw8AJ3DMrI/MPG9dAWNnGWzNH/Bss/9jgeefI+sN+AC7Z
ZMsk1xZchQPjtNJ+LLXawi9zQ48TDBtyocXGRseyLnjkKTp7H0SjNtsskwAfNacb
zGGlEgua0NHKAhVpxT0L21N94MzQ/t11LWStHR1l2o4pDwjb/7RxMqfvAuSIP/kF
B7g2L40Swmt5UcT+/XaEIh7fNqqSyfmbDlKv4LhUo/1Xvm10ioT40ZSOPTuN7SCG
TpLzoWkFCTo3JvL2zN1VJGPm/keJTZ+8kJxYL9TM+dVnvDxvq4DCVTtBexaBSvI=
=nTt0
-----END PGP SIGNATURE-----
