-----BEGIN PGP SIGNATURE-----
Version: GnuPG v1

iQEcBAABAgAGBQJXhbTUAAoJENJWiVnR2qVmFNsH/0oZTbpqbB5SKTNkaSNy6Ihk
uxAs1GdOA8o0Pp7pok99oXXCkFdlAsgBkpQScKTBXg9jCZgEJB5quVA7gZst9oLY
V88ac6ZYtA4Wy+LYaEDNhTCLBSmknks5qIzM7Aa9Aq5+9ddaeSgvfiX6bBzwnXYd
dgu3u++XJ2Rcnlf/acH8O7uvQht1BrUF7seE994rntUBfNjxrmvXszIOGYPrReKL
s3W/wl9YiH34o0XX9GzgEPy5IBnDZLTSpYlsTbHgjUqf/o0+ib8tdXil0eCgx4SL
AV7HXEx9BDJxNXSbLjxvcG9dIym7LSMvin+gFhGGYhhc+GJPQ+EQjKTs3TKfOFY=
=Tldm
-----END PGP SIGNATURE-----
